<?xml version="1.0" encoding="UTF-8" standalone="no"?>
<!-- Created with Inkscape (http://www.inkscape.org/) -->

<svg
        xmlns:dc="http://purl.org/dc/elements/1.1/"
        xmlns:cc="http://creativecommons.org/ns#"
        xmlns:rdf="http://www.w3.org/1999/02/22-rdf-syntax-ns#"
        xmlns="http://www.w3.org/2000/svg"
        xmlns:sodipodi="http://sodipodi.sourceforge.net/DTD/sodipodi-0.dtd"
        xmlns:inkscape="http://www.inkscape.org/namespaces/inkscape"
        width="758.60809"
        height="500.95633"
        id="svg3293"
        version="1.1"
        inkscape:version="0.48.4 r9939"
        sodipodi:docname="actor-model.svg"
        inkscape:export-filename="/home/arild/workspace/akka-workshop/slides/figures/actor-model.png"
        inkscape:export-xdpi="90"
        inkscape:export-ydpi="90">
  <defs
     id="defs3295">
    <marker
       inkscape:stockid="TriangleInM"
       orient="auto"
       refY="0"
       refX="0"
       id="TriangleInM"
       style="overflow:visible">
      <path
         id="path7583"
         d="m 5.77,0 -8.65,5 0,-10 8.65,5 z"
         style="fill-rule:evenodd;stroke:#000000;stroke-width:1pt"
         transform="scale(-0.4,-0.4)"
         inkscape:connector-curvature="0" />
    </marker>
    <marker
       inkscape:stockid="TriangleInL"
       orient="auto"
       refY="0"
       refX="0"
       id="TriangleInL-02-5"
       style="overflow:visible">
      <path
         id="path6015-9-39"
         d="m 5.77,0 -8.65,5 0,-10 8.65,5 z"
         style="fill-rule:evenodd;stroke:#000000;stroke-width:1pt"
         transform="scale(-0.8,-0.8)"
         inkscape:connector-curvature="0" />
    </marker>
    <marker
       inkscape:stockid="TriangleInL"
       orient="auto"
       refY="0"
       refX="0"
       id="marker3240"
       style="overflow:visible">
      <path
         id="path3242"
         d="m 5.77,0 -8.65,5 0,-10 8.65,5 z"
         style="fill-rule:evenodd;stroke:#000000;stroke-width:1pt"
         transform="scale(-0.8,-0.8)"
         inkscape:connector-curvature="0" />
    </marker>
    <marker
       inkscape:stockid="TriangleInL"
       orient="auto"
       refY="0"
       refX="0"
       id="marker3244"
       style="overflow:visible">
      <path
         id="path3246"
         d="m 5.77,0 -8.65,5 0,-10 8.65,5 z"
         style="fill-rule:evenodd;stroke:#000000;stroke-width:1pt"
         transform="scale(-0.8,-0.8)"
         inkscape:connector-curvature="0" />
    </marker>
    <marker
       inkscape:stockid="TriangleInL"
       orient="auto"
       refY="0"
       refX="0"
       id="TriangleInL-02"
       style="overflow:visible">
      <path
         id="path6015-9"
         d="m 5.77,0 -8.65,5 0,-10 8.65,5 z"
         style="fill-rule:evenodd;stroke:#000000;stroke-width:1pt"
         transform="scale(-0.8,-0.8)"
         inkscape:connector-curvature="0" />
    </marker>
    <marker
       inkscape:stockid="TriangleInL"
       orient="auto"
       refY="0"
       refX="0"
       id="marker3250"
       style="overflow:visible">
      <path
         id="path3252"
         d="m 5.77,0 -8.65,5 0,-10 8.65,5 z"
         style="fill-rule:evenodd;stroke:#000000;stroke-width:1pt"
         transform="scale(-0.8,-0.8)"
         inkscape:connector-curvature="0" />
    </marker>
    <marker
       inkscape:stockid="TriangleInL"
       orient="auto"
       refY="0"
       refX="0"
       id="TriangleInL-02-5-0"
       style="overflow:visible">
      <path
         id="path6015-9-39-6"
         d="m 5.77,0 -8.65,5 0,-10 8.65,5 z"
         style="fill-rule:evenodd;stroke:#000000;stroke-width:1pt"
         transform="scale(-0.8,-0.8)"
         inkscape:connector-curvature="0" />
    </marker>
    <marker
       inkscape:stockid="TriangleInM"
       orient="auto"
       refY="0"
       refX="0"
       id="TriangleInM-6"
       style="overflow:visible">
      <path
         inkscape:connector-curvature="0"
         id="path7583-1"
         d="m 5.77,0 -8.65,5 0,-10 8.65,5 z"
         style="fill-rule:evenodd;stroke:#000000;stroke-width:1pt"
         transform="scale(-0.4,-0.4)" />
    </marker>
    <marker
       inkscape:stockid="TriangleInM"
       orient="auto"
       refY="0"
       refX="0"
       id="TriangleInM-8"
       style="overflow:visible">
      <path
         inkscape:connector-curvature="0"
         id="path7583-2"
         d="m 5.77,0 -8.65,5 0,-10 8.65,5 z"
         style="fill-rule:evenodd;stroke:#000000;stroke-width:1pt"
         transform="scale(-0.4,-0.4)" />
    </marker>
  </defs>
  <sodipodi:namedview
     id="base"
     pagecolor="#ffffff"
     bordercolor="#666666"
     borderopacity="1.0"
     inkscape:pageopacity="0"
     inkscape:pageshadow="2"
     inkscape:zoom="0.98994949"
     inkscape:cx="336.02365"
     inkscape:cy="217.03811"
     inkscape:document-units="px"
     inkscape:current-layer="layer1"
     showgrid="false"
     inkscape:snap-bbox="true"
     inkscape:bbox-paths="true"
     inkscape:bbox-nodes="true"
     inkscape:snap-bbox-edge-midpoints="true"
     inkscape:snap-bbox-midpoints="true"
     inkscape:object-paths="true"
     inkscape:object-nodes="true"
     inkscape:snap-smooth-nodes="true"
     inkscape:snap-intersection-paths="true"
     inkscape:snap-midpoints="true"
     inkscape:snap-object-midpoints="true"
     inkscape:snap-center="true"
     inkscape:snap-page="true"
     fit-margin-top="0"
     fit-margin-left="0"
     fit-margin-right="0"
     fit-margin-bottom="0"
     inkscape:window-width="1920"
     inkscape:window-height="1031"
     inkscape:window-x="0"
     inkscape:window-y="25"
     inkscape:window-maximized="1" />
  <metadata
     id="metadata3298">
    <rdf:RDF>
      <cc:Work
         rdf:about="">
        <dc:format>image/svg+xml</dc:format>
        <dc:type
           rdf:resource="http://purl.org/dc/dcmitype/StillImage" />
        <dc:title></dc:title>
      </cc:Work>
    </rdf:RDF>
  </metadata>
  <g
     inkscape:label="Layer 1"
     inkscape:groupmode="layer"
     id="layer1"
     transform="translate(42.43028,-229.20873)">
    <path
       transform="matrix(1.2580869,0,0,1.4022427,268.0237,18.258848)"
       d="m 355.71428,219.50504 c 0,37.87095 -34.21824,68.57142 -76.42857,68.57142 -42.21034,0 -76.42858,-30.70047 -76.42858,-68.57142 0,-37.87096 34.21824,-68.57143 76.42858,-68.57143 42.21033,0 76.42857,30.70047 76.42857,68.57143 z"
       sodipodi:ry="68.571426"
       sodipodi:rx="76.428574"
       sodipodi:cy="219.50504"
       sodipodi:cx="279.28571"
       id="path7510-1-1"
       style="fill:#80ff80;fill-rule:evenodd;stroke:#000000;stroke-width:1;stroke-linecap:butt;stroke-linejoin:miter;stroke-miterlimit:4;stroke-opacity:1;stroke-dasharray:none"
       sodipodi:type="arc" />
    <text
       sodipodi:linespacing="125%"
       id="text9060-4-3-6"
       y="336.97003"
       x="620.3847"
       style="font-size:14.98822594px;font-style:normal;font-weight:normal;line-height:125%;letter-spacing:0px;word-spacing:0px;fill:#483e37;fill-opacity:1;stroke:none;font-family:Sans"
       xml:space="preserve"><tspan
         id="tspan9140-7"
         style="font-size:29.97645187px;font-style:normal;font-variant:normal;font-weight:normal;font-stretch:normal;text-align:center;text-anchor:middle;fill:#483e37;font-family:Monospace;-inkscape-font-specification:Monospace"
         y="336.97003"
         x="620.3847"
         sodipodi:role="line">Actor 2</tspan></text>
    <path
       transform="matrix(1.2580869,0,0,1.4022427,268.0237,325.53039)"
       d="m 355.71428,219.50504 c 0,37.87095 -34.21824,68.57142 -76.42857,68.57142 -42.21034,0 -76.42858,-30.70047 -76.42858,-68.57142 0,-37.87096 34.21824,-68.57143 76.42858,-68.57143 42.21033,0 76.42857,30.70047 76.42857,68.57143 z"
       sodipodi:ry="68.571426"
       sodipodi:rx="76.428574"
       sodipodi:cy="219.50504"
       sodipodi:cx="279.28571"
       id="path7510-1-1-9"
       style="fill:#80ff80;fill-rule:evenodd;stroke:#000000;stroke-width:1;stroke-linecap:butt;stroke-linejoin:miter;stroke-miterlimit:4;stroke-opacity:1;stroke-dasharray:none"
       sodipodi:type="arc" />
    <path
       transform="matrix(1.2580869,0,0,1.4022427,-171.9763,171.89462)"
       d="m 355.71428,219.50504 c 0,37.87095 -34.21824,68.57142 -76.42857,68.57142 -42.21034,0 -76.42858,-30.70047 -76.42858,-68.57142 0,-37.87096 34.21824,-68.57143 76.42858,-68.57143 42.21033,0 76.42857,30.70047 76.42857,68.57143 z"
       sodipodi:ry="68.571426"
       sodipodi:rx="76.428574"
       sodipodi:cy="219.50504"
       sodipodi:cx="279.28571"
       id="path7510-1-1-0"
       style="fill:#80ff80;fill-rule:evenodd;stroke:#000000;stroke-width:1;stroke-linecap:butt;stroke-linejoin:miter;stroke-miterlimit:4;stroke-opacity:1;stroke-dasharray:none"
       sodipodi:type="arc" />
    <text
       sodipodi:linespacing="125%"
       id="text9060-4-3-6-6"
       y="644.24158"
       x="620.23834"
       style="font-size:14.98822594px;font-style:normal;font-weight:normal;line-height:125%;letter-spacing:0px;word-spacing:0px;fill:#483e37;fill-opacity:1;stroke:none;font-family:Sans"
       xml:space="preserve"><tspan
         id="tspan9140-7-0"
         style="font-size:29.97645187px;font-style:normal;font-variant:normal;font-weight:normal;font-stretch:normal;text-align:center;text-anchor:middle;fill:#483e37;font-family:Monospace;-inkscape-font-specification:Monospace"
         y="644.24158"
         x="620.23834"
         sodipodi:role="line">Actor 3</tspan></text>
    <text
       sodipodi:linespacing="125%"
       id="text9060-4-3-6-6-6"
       y="490.4082"
       x="180.12854"
       style="font-size:14.98822594px;font-style:normal;font-weight:normal;line-height:125%;letter-spacing:0px;word-spacing:0px;fill:#483e37;fill-opacity:1;stroke:none;font-family:Sans"
       xml:space="preserve"><tspan
         id="tspan9140-7-0-6"
         style="font-size:29.97645187px;font-style:normal;font-variant:normal;font-weight:normal;font-stretch:normal;text-align:center;text-anchor:middle;fill:#483e37;font-family:Monospace;-inkscape-font-specification:Monospace"
         y="490.4082"
         x="180.12854"
         sodipodi:role="line">Actor 1</tspan></text>
    <g
       id="g7217"
       transform="translate(732.28847,394.74058)">
      <g
         transform="translate(7.1428572,41.071429)"
         id="g7212">
        <rect
           y="79.630859"
           x="-341.19897"
           height="60.245945"
           width="83.535286"
           id="rect9166-9"
           style="fill:#afdde9;fill-opacity:1;stroke:#838383;stroke-width:1.60771716;stroke-miterlimit:4;stroke-opacity:1;stroke-dasharray:none"
           transform="scale(1,-1)"
           ry="3.9341156"
           rx="5.1401" />
        <path
           sodipodi:nodetypes="cc"
           inkscape:connector-curvature="0"
           id="path5736-6-7-8-0-2-1-79-7-9"
           d="m -257.85983,-119.75383 -83.14301,0"
           style="color:#000000;fill:#008000;stroke:#838383;stroke-width:1.85366404;stroke-miterlimit:4;stroke-opacity:1;stroke-dasharray:none;marker:none;visibility:visible;display:inline;overflow:visible;enable-background:accumulate" />
        <path
           sodipodi:nodetypes="cc"
           inkscape:connector-curvature="0"
           id="path5736-6-7-8-0-2-1-79-7-9-2"
           d="m -257.85983,-99.75383 -83.14301,0"
           style="color:#000000;fill:#008000;stroke:#838383;stroke-width:1.85366404;stroke-miterlimit:4;stroke-opacity:1;stroke-dasharray:none;marker:none;visibility:visible;display:inline;overflow:visible;enable-background:accumulate" />
      </g>
    </g>
    <path
       sodipodi:nodetypes="cc"
       inkscape:connector-curvature="0"
       id="path5736-6-7-8-0-2-1-79-7-9-2-8"
       d="m 523.2356,326.05818 -41.46797,0"
       style="color:#000000;fill:#1a1a1a;stroke:#000000;stroke-width:2.03439093;stroke-miterlimit:4;stroke-opacity:1;stroke-dasharray:none;marker:none;visibility:visible;display:inline;overflow:visible;enable-background:accumulate" />
    <g
       id="g7280"
       transform="translate(750.13165,379.90582)">
      <g
         id="g7277">
        <rect
           y="-303.30933"
           x="-351.47397"
           height="99.770844"
           width="82.830978"
           id="rect9166-9-3"
           style="fill:#afdde9;fill-opacity:1;stroke:#838383;stroke-width:2.06019807;stroke-miterlimit:4;stroke-opacity:1;stroke-dasharray:none"
           transform="scale(1,-1)"
           ry="6.5151277"
           rx="5.0967627" />
      </g>
      <path
         style="color:#000000;fill:#008000;stroke:#838383;stroke-width:1.85366404;stroke-miterlimit:4;stroke-opacity:1;stroke-dasharray:none;marker:none;visibility:visible;display:inline;overflow:visible;enable-background:accumulate"
         d="m -268.48699,223.30932 -83.14301,0"
         id="path5736-6-7-8-0-2-1-79-7-9-3"
         inkscape:connector-curvature="0"
         sodipodi:nodetypes="cc" />
      <path
         style="color:#000000;fill:#008000;stroke:#838383;stroke-width:1.85366404;stroke-miterlimit:4;stroke-opacity:1;stroke-dasharray:none;marker:none;visibility:visible;display:inline;overflow:visible;enable-background:accumulate"
         d="m -268.48699,243.30932 -83.14301,0"
         id="path5736-6-7-8-0-2-1-79-7-9-2-1"
         inkscape:connector-curvature="0"
         sodipodi:nodetypes="cc" />
      <path
         style="color:#000000;fill:#008000;stroke:#838383;stroke-width:1.85366404;stroke-miterlimit:4;stroke-opacity:1;stroke-dasharray:none;marker:none;visibility:visible;display:inline;overflow:visible;enable-background:accumulate"
         d="m -268.48699,263.30932 -83.14301,0"
         id="path5736-6-7-8-0-2-1-79-7-9-2-1-1"
         inkscape:connector-curvature="0"
         sodipodi:nodetypes="cc" />
      <path
         style="color:#000000;fill:#008000;stroke:#838383;stroke-width:1.85366404;stroke-miterlimit:4;stroke-opacity:1;stroke-dasharray:none;marker:none;visibility:visible;display:inline;overflow:visible;enable-background:accumulate"
         d="m -268.48699,283.30932 -83.14301,0"
         id="path5736-6-7-8-0-2-1-79-7-9-2-1-1-9"
         inkscape:connector-curvature="0"
         sodipodi:nodetypes="cc" />
    </g>
    <g
       id="g7217-4"
       transform="translate(292.28847,548.37636)">
      <rect
         rx="5.1401"
         ry="2.6200671"
         transform="scale(1,-1)"
         style="fill:#afdde9;fill-opacity:1;stroke:#838383;stroke-width:1.31202555;stroke-miterlimit:4;stroke-opacity:1;stroke-dasharray:none"
         id="rect9166-9-4"
         width="83.535286"
         height="40.122974"
         x="-334.05612"
         y="58.6824" />
      <path
         style="color:#000000;fill:#008000;stroke:#838383;stroke-width:1.85366404;stroke-miterlimit:4;stroke-opacity:1;stroke-dasharray:none;marker:none;visibility:visible;display:inline;overflow:visible;enable-background:accumulate"
         d="m -250.71697,-78.682401 -83.14301,0"
         id="path5736-6-7-8-0-2-1-79-7-9-5"
         inkscape:connector-curvature="0"
         sodipodi:nodetypes="cc" />
    </g>
    <flowRoot
       xml:space="preserve"
       id="flowRoot7318"
       style="font-size:8px;font-style:normal;font-weight:normal;line-height:125%;letter-spacing:0px;word-spacing:0px;fill:#000000;fill-opacity:1;stroke:none;font-family:Sans"
       transform="translate(748.11816,462.03816)"><flowRegion
         id="flowRegion7320"><rect
           id="rect7322"
           width="138.92857"
           height="35.357143"
           x="-347.14285"
           y="-195.13782" /></flowRegion><flowPara
         id="flowPara7324"
         style="font-size:20px">Mailbox</flowPara></flowRoot>    <path
       sodipodi:nodetypes="cc"
       inkscape:connector-curvature="0"
       id="path5736-6-7-8-0-2-1-79-7-9-2-8-4"
       d="m 523.2356,633.32973 -41.46797,0"
       style="color:#000000;fill:#1a1a1a;stroke:#000000;stroke-width:2.03439093;stroke-miterlimit:4;stroke-opacity:1;stroke-dasharray:none;marker:none;visibility:visible;display:inline;overflow:visible;enable-background:accumulate" />
    <path
       sodipodi:nodetypes="cc"
       inkscape:connector-curvature="0"
       id="path5736-6-7-8-0-2-1-79-7-0-9-2"
       d="M 383.51946,619.97363 C 310.99471,621.90998 263.63795,601.6989 252.48381,567.77412"
       style="color:#000000;fill:none;stroke:#000000;stroke-width:3.70994902;stroke-miterlimit:4;stroke-opacity:1;stroke-dasharray:none;marker:none;marker-start:url(#TriangleInM);visibility:visible;display:inline;overflow:visible;enable-background:accumulate" />
    <path
       sodipodi:nodetypes="cc"
       inkscape:connector-curvature="0"
       id="path5736-6-7-8-0-2-1-79-7-9-2-8-6"
       d="m 83.039471,469.69396 -41.46797,0"
       style="color:#000000;fill:#1a1a1a;stroke:#000000;stroke-width:2.03439093;stroke-miterlimit:4;stroke-opacity:1;stroke-dasharray:none;marker:none;visibility:visible;display:inline;overflow:visible;enable-background:accumulate" />
    <path
       sodipodi:nodetypes="cc"
       inkscape:connector-curvature="0"
       id="path5736-6-7-8-0-2-1-79-7-0-9-2-6"
       d="m 380.87179,324.72954 c -72.52474,-1.93635 -139.16721,20.41759 -150.32135,54.34237"
       style="color:#000000;fill:none;stroke:#000000;stroke-width:3.70994902;stroke-miterlimit:4;stroke-opacity:1;stroke-dasharray:none;marker:none;marker-start:url(#TriangleInM);visibility:visible;display:inline;overflow:visible;enable-background:accumulate" />
    <flowRoot
       xml:space="preserve"
       id="flowRoot7318-8"
       style="font-size:8px;font-style:normal;font-weight:normal;line-height:125%;letter-spacing:0px;word-spacing:0px;fill:#000000;fill-opacity:1;stroke:none;font-family:Sans"
       transform="translate(748.19133,749.32102)"><flowRegion
         id="flowRegion7320-7"><rect
           id="rect7322-9"
           width="138.92857"
           height="35.357143"
           x="-347.14285"
           y="-195.13782" /></flowRegion><flowPara
         id="flowPara7324-2"
         style="font-size:20px">Mailbox</flowPara></flowRoot>    <flowRoot
       xml:space="preserve"
       id="flowRoot7318-88"
       style="font-size:8px;font-style:normal;font-weight:normal;line-height:125%;letter-spacing:0px;word-spacing:0px;fill:#000000;fill-opacity:1;stroke:none;font-family:Sans"
       transform="translate(308.11816,615.82179)"><flowRegion
         id="flowRegion7320-6"><rect
           id="rect7322-4"
           width="138.92857"
           height="35.357143"
           x="-347.14285"
           y="-195.13782" /></flowRegion><flowPara
         id="flowPara7324-6"
         style="font-size:20px">Mailbox</flowPara></flowRoot>  </g>
</svg>
